…
Using *BOMRang*
---------------

*BOMRang* allows you to fetch forecasts for an individual state or all at once, the national forecast. To fetch an individual state, simply use the official postal code for the state for the `state` parameter.

Fetch the forecast for Queensland

``` r
library("BOMRang")

QLD_forecast <- get_forecast(state = "QLD")
QLD_forecast
```

    ## # A tibble: 672 × 13
    ##          aac       date max_temp min_temp lower_prcp_limit
    ##        <chr>      <chr>    <chr>    <chr>            <chr>
    ## 1  QLD_PT038 2017-05-15       25       10               0 
    ## 2  QLD_PT038 2017-05-16       25        9               0 
    ## 3  QLD_PT038 2017-05-17       24        8               0 
    ## 4  QLD_PT038 2017-05-18       24       10               0 
    ## 5  QLD_PT038 2017-05-19       23       13               2 
    ## 6  QLD_PT038 2017-05-20       23       14               6 
    ## 7  QLD_PT045 2017-05-15       24        9               0 
    ## 8  QLD_PT045 2017-05-16       24        8               0 
    ## 9  QLD_PT045 2017-05-17       24        7               0 
    ## 10 QLD_PT045 2017-05-18       23        9               0 
    ## # ... with 662 more rows, and 8 more variables: upper_prcp_limit <chr>,
    ## #   precis <chr>, prob_prcp <chr>, location <chr>, state <chr>, lon <dbl>,
    ## #   lat <dbl>, elev <dbl>
…
