…
# trim the end of the rows off that have extra info that's not in columns
nrows <- nrow(bom_stations_raw) - 6
bom_stations_raw <- bom_stations_raw[1:nrows, ]

# return only current stations listing
bom_stations_raw <-
  bom_stations_raw[is.na(bom_stations_raw$end), ]
bom_stations_raw$end <- format(Sys.Date(), "%Y")

bom_stations_raw
```

    ## # A tibble: 7,320 x 11
    ##    site   dist  name     start end     lat   lon state   elev bar_ht   wmo
    ##    <chr>  <chr> <chr>    <int> <chr> <dbl> <dbl> <chr>  <dbl>  <dbl> <int>
    ##  1 001006 01    WYNDHAM…  1951 2018  -15.5  128. WA      3.80   4.30 95214
    ##  2 001007 01    TROUGHT…  1956 2018  -13.8  126. WA      6.00   8.00 94102
    ##  3 001010 01    THEDA     1965 2018  -14.8  126. WA    210.    NA       NA
    ##  4 001013 01    WYNDHAM   1968 2018  -15.5  128. WA     11.0   NA       NA
    ##  5 001014 01    EMMA GO…  1998 2018  -15.9  128. WA    130.    NA       NA
    ##  6 001018 01    MOUNT E…  1973 2018  -16.4  126. WA    546.   547.   94211
    ##  7 001019 01    KALUMBU…  1997 2018  -14.3  127. WA     23.0   24.0  94100
    ##  8 001020 01    TRUSCOTT  1944 2018  -14.1  126. WA     51.0   52.5  95101
    ##  9 001023 01    EL QUES…  1967 2018  -16.0  128. WA     90.0   NA       NA
    ## 10 001024 01    ELLENBR…  1986 2018  -16.0  127. WA    300.    NA       NA
    ## # ... with 7,310 more rows
…
