Fetch Australian Government Bureau of Meteorology Data • bomrang
…
Examples

Following is an example fetching the forecast for Queensland.

library("bomrang")

QLD_forecast <- get_forecast(state = "QLD")
QLD_forecast

## # A tibble: 896 × 17
##          aac index          start_time_local            end_time_local
##        <chr> <chr>                     <chr>                     <chr>
## 1  QLD_PT038     0 2017-05-15T17:00:00+10:00 2017-05-16T00:00:00+10:00
## 2  QLD_PT038     1 2017-05-16T00:00:00+10:00 2017-05-17T00:00:00+10:00
## 3  QLD_PT038     2 2017-05-17T00:00:00+10:00 2017-05-18T00:00:00+10:00
## 4  QLD_PT038     3 2017-05-18T00:00:00+10:00 2017-05-19T00:00:00+10:00
## 5  QLD_PT038     4 2017-05-19T00:00:00+10:00 2017-05-20T00:00:00+10:00
## 6  QLD_PT038     5 2017-05-20T00:00:00+10:00 2017-05-21T00:00:00+10:00
## 7  QLD_PT038     6 2017-05-21T00:00:00+10:00 2017-05-22T00:00:00+10:00
## 8  QLD_PT038     7 2017-05-22T00:00:00+10:00 2017-05-23T00:00:00+10:00
## 9  QLD_PT045     0 2017-05-15T17:00:00+10:00 2017-05-16T00:00:00+10:00
## 10 QLD_PT045     1 2017-05-16T00:00:00+10:00 2017-05-17T00:00:00+10:00
## # ... with 886 more rows, and 13 more variables: start_time_utc <chr>,
## #   end_time_utc <chr>, maximum_temperature <dbl>,
## #   minimum_temperature <dbl>, lower_prec_limit <dbl>,
## #   upper_prec_limit <chr>, precis <chr>,
## #   probability_of_precipitation <chr>, location <chr>, state <chr>,
## #   lon <dbl>, lat <dbl>, elev <dbl>
…
library("bomrang")

QLD_forecast <- get_bulletin(state = "QLD")
QLD_forecast

## # A tibble: 26 × 20
##    `obs-time-utc` `time-zone`  site                     name     r    tn
##            <fctr>      <fctr> <chr>                    <chr> <dbl> <dbl>
## 1   20170514T2300         EST 38026       BIRDSVILLE AIRPORT  0.00  11.6
## 2   20170514T2300         EST 38003           BOULIA AIRPORT  0.00  14.5
## 3   20170514T2300         EST 40842            BRISBANE AERO  0.80  14.9
## 4   20170514T2300         EST 39128           BUNDABERG AERO  0.00  15.0
## 5   20170514T2300         EST 31011              CAIRNS AERO  0.00  19.4
## 6   20170514T2300         EST 44021         CHARLEVILLE AERO  1.20   7.2
## 7   20170514T2300         EST 33013 COLLINSVILLE POST OFFICE  0.01  15.0
## 8   20170514T2300         EST 41522            DALBY AIRPORT  4.60  10.5
## 9   20170514T2300         EST 30124       GEORGETOWN AIRPORT  0.00  13.4
## 10  20170514T2300         EST 32078         INGHAM COMPOSITE  0.01  17.3
## # ... with 16 more rows, and 14 more variables: tx <dbl>, twd <dbl>,
## #   ev <dbl>, tg <dbl>, sn <dbl>, t5 <dbl>, t10 <dbl>, t20 <dbl>,
## #   t50 <dbl>, t1m <dbl>, wr <dbl>, state <fctr>, lat <dbl>, lon <dbl>
…
